<svg width="14px" height="77px" viewBox="0 0 14 77" version="1.1" xmlns="http://www.w3.org/2000/svg" xmlns:xlink="http://www.w3.org/1999/xlink" preserveAspectRatio="none">
    <g id="Page-1" stroke="none" stroke-width="1" fill="none" fill-rule="evenodd">
        <polygon fill="#F1F7FD" points="5.02978516 0 13.9404688 38.5 5.02978516 77 0.23046875 77 8.99267578 38.5 0.23046875 0"></polygon>
        <polygon fill="#DFEBF7" points="0.23046875 0 8.99267578 38.5 0.23046875 77"></polygon>
    </g>
</svg>