<svg viewBox="0 0 30 30" version="1.1" xmlns="http://www.w3.org/2000/svg" xmlns:xlink="http://www.w3.org/1999/xlink" width="20px" height="20px">
    <g id="Symbols" stroke="none" stroke-width="1" fill="none" fill-rule="evenodd">
        <g id="Link,-edit" transform="translate(-35.000000, -25.000000)" fill="#66AEFF">
            <path d="M64.26875,30.385 L59.615,25.75375 C59.1125,25.25125 58.5125,25 57.813125,25 C57.100625,25 56.50625,25.25125 56.031875,25.75375 L52.743125,29.02 L60.981875,37.256875 L64.26875,33.968125 C64.75625,33.480625 65,32.888125 65,32.186875 C65,31.5025 64.75625,30.9025 64.26875,30.385 L64.26875,30.385 Z M41.675,45.158125 C41.58125,45.25 41.46875,45.296875 41.3375,45.296875 C41.046875,45.296875 40.9025,45.14875 40.9025,44.86 C40.9025,44.72875 40.9475,44.61625 41.04125,44.5225 L51.77375,33.791875 C51.865625,33.7 51.978125,33.653125 52.109375,33.653125 C52.4,33.653125 52.54625,33.7975 52.54625,34.09 C52.54625,34.219375 52.499375,34.331875 52.4075,34.425625 L41.675,45.158125 Z M42.18875,51.25 L40.625,51.25 L40.625,49.375 L38.75,49.375 L38.75,47.81125 L39.944375,46.009375 L44.294375,50.055625 L42.18875,51.25 Z M51.475625,30.2875 L35,46.76125 L35,55 L43.23875,55 L59.7125,38.52625 L51.475625,30.2875 Z" id="Icon"></path>
        </g>
    </g>
</svg>