<svg class="ombu-icon ombu-icon-admin-gears" xmlns="http://www.w3.org/2000/svg" viewBox="0 0 32 32" width="32px" height="32px">
  <path class="ombu-icon-admin-gears--gear-large" d="M21.939,13.157C21.979,12.777,22,12.391,22,12s-0.021-0.777-0.061-1.157 l-2.687-0.956c-0.202-0.792-0.517-1.539-0.924-2.225l1.225-2.577c-0.487-0.602-1.036-1.151-1.638-1.638l-2.577,1.225 c-0.686-0.407-1.433-0.721-2.225-0.924l-0.956-2.688C11.777,1.021,11.391,1,11,1s-0.777,0.021-1.157,0.061L8.887,3.748 C8.095,3.951,7.348,4.265,6.662,4.672L4.085,3.447C3.483,3.934,2.934,4.483,2.447,5.085l1.225,2.577 C3.265,8.347,2.951,9.095,2.748,9.887l-2.687,0.956C0.021,11.223,0,11.609,0,12s0.021,0.777,0.061,1.157l2.687,0.956 c0.202,0.792,0.517,1.539,0.924,2.225l-1.225,2.577c0.487,0.602,1.036,1.151,1.638,1.638l2.577-1.225 c0.686,0.407,1.433,0.721,2.225,0.924l0.956,2.687C10.223,22.979,10.609,23,11,23s0.777-0.021,1.157-0.061l0.956-2.687 c0.792-0.202,1.539-0.517,2.225-0.924l2.577,1.225c0.602-0.487,1.151-1.036,1.638-1.638l-1.225-2.577 c0.407-0.686,0.721-1.433,0.924-2.225L21.939,13.157z M11,15.548c-1.96,0-3.548-1.589-3.548-3.548c0-1.96,1.589-3.548,3.548-3.548 S14.548,10.04,14.548,12C14.548,13.96,12.96,15.548,11,15.548z"/>
  <path class="ombu-icon-admin-gears--gear-medium" d="M29.595,24.2L31,22.932c-0.072-0.243-0.157-0.485-0.257-0.725 c-0.099-0.24-0.21-0.471-0.331-0.694l-1.89,0.097c-0.325-0.434-0.708-0.812-1.131-1.13l0.097-1.891 c-0.451-0.245-0.927-0.442-1.42-0.588l-1.269,1.405c-0.524-0.075-1.062-0.078-1.599-0.001L21.932,18 c-0.243,0.072-0.485,0.157-0.725,0.257c-0.24,0.099-0.471,0.21-0.694,0.331l0.097,1.89c-0.434,0.325-0.813,0.708-1.13,1.131 l-1.891-0.097c-0.245,0.451-0.442,0.927-0.588,1.42l1.405,1.269c-0.075,0.524-0.078,1.062-0.001,1.599L17,27.068 c0.072,0.243,0.157,0.485,0.257,0.725c0.099,0.24,0.21,0.471,0.331,0.694l1.89-0.097c0.325,0.434,0.708,0.812,1.131,1.13 l-0.097,1.891c0.451,0.245,0.927,0.442,1.42,0.588l1.269-1.405c0.524,0.075,1.062,0.078,1.599,0.001L26.068,32 c0.243-0.072,0.485-0.157,0.725-0.257c0.24-0.099,0.471-0.21,0.694-0.331l-0.096-1.89c0.434-0.325,0.812-0.708,1.13-1.131 l1.891,0.097c0.245-0.451,0.442-0.927,0.588-1.42l-1.405-1.269C29.669,25.275,29.672,24.737,29.595,24.2z M24.901,27.175 c-1.201,0.498-2.579-0.073-3.076-1.274c-0.498-1.201,0.073-2.579,1.274-3.076c1.201-0.498,2.579,0.073,3.076,1.274 C26.673,25.3,26.102,26.678,24.901,27.175z"/>
  <path class="ombu-icon-admin-gears--gear-small" d="M30.896,4.871L32,3.875c-0.057-0.191-0.124-0.381-0.202-0.57 c-0.078-0.188-0.165-0.37-0.26-0.545l-1.485,0.076c-0.256-0.341-0.556-0.638-0.889-0.888l0.076-1.486 c-0.355-0.193-0.729-0.348-1.116-0.462l-0.997,1.104c-0.412-0.059-0.834-0.062-1.256-0.001L24.875,0 c-0.191,0.057-0.381,0.124-0.57,0.202s-0.37,0.165-0.545,0.26l0.076,1.485c-0.341,0.256-0.638,0.556-0.888,0.889L21.463,2.76 c-0.193,0.355-0.348,0.729-0.462,1.116l1.104,0.997c-0.059,0.412-0.062,0.834-0.001,1.256L21,7.125 c0.057,0.191,0.124,0.381,0.202,0.57c0.078,0.188,0.165,0.37,0.26,0.545l1.485-0.076c0.256,0.341,0.556,0.638,0.889,0.888 l-0.076,1.485c0.355,0.193,0.729,0.348,1.116,0.462l0.997-1.104c0.412,0.059,0.834,0.062,1.256,0.001L28.125,11 c0.191-0.057,0.381-0.124,0.57-0.202s0.37-0.165,0.545-0.26l-0.076-1.485c0.341-0.256,0.638-0.556,0.888-0.889l1.486,0.076 c0.193-0.355,0.348-0.729,0.462-1.116l-1.104-0.997C30.954,5.716,30.957,5.293,30.896,4.871z M27.208,7.209 c-0.944,0.391-2.026-0.057-2.417-1.001c-0.391-0.944,0.057-2.026,1.001-2.417c0.944-0.391,2.026,0.057,2.417,1.001 C28.6,5.736,28.152,6.818,27.208,7.209z"/>
</svg>
